Japanese Utility Functions and Data • zipangu
…
Kansuji

kansuji2arabic(c("一", "百"))
#> [1] "1"   "100"
kansuji2arabic_all("北海道札幌市中央区北一条西二丁目")
#> [1] "北海道札幌市中央区北1条西2丁目"

Data set

jpnprefs
#> # A tibble: 47 x 5
#>    jis_code prefecture_kanji prefecture    region   major_island
#>    <chr>    <chr>            <chr>         <chr>    <chr>       
#>  1 01       北海道           Hokkaido      Hokkaido Hokkaido    
#>  2 02       青森県           Aomori-ken    Tohoku   Honshu      
#>  3 03       岩手県           Iwate-ken     Tohoku   Honshu      
#>  4 04       宮城県           Miyagi-ken    Tohoku   Honshu      
#>  5 05       秋田県           Akita-ken     Tohoku   Honshu      
#>  6 06       山形県           Yamagata-ken  Tohoku   Honshu      
#>  7 07       福島県           Fukushima-ken Tohoku   Honshu      
#>  8 08       茨城県           Ibaraki-ken   Kanto    Honshu      
#>  9 09       栃木県           Tochigi-ken   Kanto    Honshu      
#> 10 10       群馬県           Gunma-ken     Kanto    Honshu      
#> # … with 37 more rows
…
